module vieturbandict

go 1.15

require (
	github.com/dgrijalva/jwt-go v3.2.0+incompatible
	github.com/gin-gonic/gin v1.6.3
	github.com/go-playground/validator/v10 v10.4.1 // indirect
	github.com/go-redis/redis/v8 v8.8.0
	github.com/golang/protobuf v1.5.2 // indirect
	github.com/joho/godotenv v1.3.0
	github.com/json-iterator/go v1.1.10 // indirect
	github.com/leodido/go-urn v1.2.1 // indirect
	github.com/modern-go/concurrent v0.0.0-20180306012644-bacd9c7ef1dd // indirect
	github.com/modern-go/reflect2 v1.0.1 // indirect
	github.com/myesui/uuid v1.0.0 // indirect
	github.com/stretchr/testify v1.7.0
	github.com/twinj/uuid v1.0.0
	github.com/ugorji/go v1.2.5 // indirect
	go.mongodb.org/mongo-driver v1.5.1
	golang.org/x/crypto v0.0.0-20210322153248-0c34fe9e7dc2
	golang.org/x/sys v0.0.0-20210331175145-43e1dd70ce54 // indirect
	gopkg.in/stretchr/testify.v1 v1.2.2 // indirect
	gopkg.in/yaml.v2 v2.4.0 // indirect
)
